Approximate Personalized PageRank • aPPR
…
erdos_tracker
#> Error in eval(expr, envir, enclos): object 'erdos_tracker' not found

Find the personalized pagerank of a Twitter user using rtweet

fchen365_ppr <- appr(
  rtweet_graph(),
  "fchen365",
  epsilon = 1e-3,
  verbose = TRUE
)

fchen365_ppr$stats
#> # A tibble: 94 x 7
#>    name                 r     p in_degree out_degree degree_adjusted regularized
#>    <chr>            <dbl> <dbl>     <dbl>      <dbl>           <dbl>       <dbl>
#>  1 7752257741314~ 0.0970  0.135        47         97         0.00288 0.000000116
#>  2 759249         0.00791 0         13313       1359         0       0          
#>  3 97505313       0.00791 0          1280       2551         0       0          
#>  4 35109534       0.00791 0          1743        345         0       0          
#>  5 1225146797049~ 0.00791 0             6         11         0       0          
#>  6 7804292688660~ 0.00791 0          4159       1244         0       0          
#>  7 14897792       0.00791 0         17836       5542         0       0          
#>  8 165678616      0.00791 0         58259       1206         0       0          
#>  9 9095302874905~ 0.00791 0           191        637         0       0          
#> 10 16549997       0.00791 0         72320       1540         0       0          
#> # ... with 84 more rows

Find the personalized pagerank of a Twitter user and cache the following network in the process

alexpghayes_ppr <- appr(
  twittercache_graph(),
  "alexpghayes",
  epsilon = 1e-4,
  verbose = TRUE
)

alexpghayes_ppr$stats
#> # A tibble: 1,243 x 7
#>    name                 r     p in_degree out_degree degree_adjusted regularized
#>    <chr>            <dbl> <dbl>     <dbl>      <dbl>           <dbl>       <dbl>
#>  1 7804292688660~ 9.71e-2 0.135      4069       1241       0.0000333 0.000000909
#>  2 628745609      6.19e-4 0           129        216       0         0          
#>  3 780934633      6.19e-4 0         19471       2878       0         0          
#>  4 20406724       6.19e-4 0         33816       8344       0         0          
#>  5 1152655010871~ 6.19e-4 0           552       1150       0         0          
#>  6 302667955      6.19e-4 0          3917       1724       0         0          
#>  7 2768346873     6.19e-4 0          6304       1376       0         0          
#>  8 3147524537     6.19e-4 0          1353        712       0         0          
#>  9 43261106       6.19e-4 0          1317        723       0         0          
#> 10 31241437       6.19e-4 0       4492431        215       0         0          
#> # ... with 1,233 more rows
…
