Extending aPPR • aPPR
…
#> Personalized PageRank Approximator
#> ----------------------------------
#> 
#>   - number of seeds: 1
#>   - unique nodes visited so far: 10 out of maximum of 10
#>   - total visits so far: 12
#>   - bad nodes so far: 0
#> 
#>   - teleportation constant (alpha): 0.15
#>   - desired approximation error (epsilon): 5e-04
#>   - achieved bound on approximation error: 0.0128954318143507
#>   - length of to visit list: 25
#> 
#> PPR table (see $stats field):
#> # A tibble: 49 × 7
#>    name     regularized        p in_degree out_degree degree_adjusted       r
#>    <chr>          <dbl>    <dbl>     <dbl>      <dbl>           <dbl>   <dbl>
#>  1 30345262  0.000777   0.118           52         52        0.00228  0.211  
#>  2 29624432  0          0               18         18        0        0.0129 
#>  3 28956619  0.00000707 0.000716         1          1        0.000716 0.00812
#>  4 27755345  0          0               32         32        0        0.0129 
#>  5 24936257  0          0               87         87        0        0.0129 
#>  6 24059552  0          0               15         15        0        0.0129 
#>  7 23149807  0          0               13         13        0        0.0129 
#>  8 22371471  0          0             1231       1231        0        0.0129 
#>  9 22128211  0          0               32         32        0        0.0129 
#> 10 20840052  0          0               52         52        0        0.0129 
#> # ℹ 39 more rows
…
